(kicad_symbol_lib
	(version 20231120)
	(generator "kicad_symbol_editor")
	(generator_version "8.0")
	(symbol "HF-A11-SMT"
		(pin_names
			(offset 1.016)
		)
		(exclude_from_sim no)
		(in_bom yes)
		(on_board yes)
		(property "Reference" "U"
			(at -15.24 21.59 0)
			(effects
				(font
					(size 1.27 1.27)
				)
				(justify left)
			)
		)
		(property "Value" "HF-A11-SMT"
			(at -15.24 19.05 0)
			(effects
				(font
					(size 1.27 1.27)
				)
				(justify left)
			)
		)
		(property "Footprint" ""
			(at 0 -7.62 0)
			(effects
				(font
					(size 1.27 1.27)
				)
				(hide yes)
			)
		)
		(property "Datasheet" "http://www.hi-flying.com/index.php?route=tool/upload/download&code=190ec6c62d497905ed783d140f8e5af7a753b8ab"
			(at 0 -7.62 0)
			(effects
				(font
					(size 1.27 1.27)
				)
				(hide yes)
			)
		)
		(property "Description" "WiFi IEEE802.11b/g/n with Ethernet Module, UART, GPIO"
			(at 0 0 0)
			(effects
				(font
					(size 1.27 1.27)
				)
				(hide yes)
			)
		)
		(property "ki_keywords" "WiFi IEEE802.11 b/g/n"
			(at 0 0 0)
			(effects
				(font
					(size 1.27 1.27)
				)
				(hide yes)
			)
		)
		(symbol "HF-A11-SMT_0_1"
			(rectangle
				(start -15.24 17.78)
				(end 15.24 -17.78)
				(stroke
					(width 0.254)
					(type default)
				)
				(fill
					(type background)
				)
			)
			(circle
				(center 3.81 -1.27)
				(radius 0.0001)
				(stroke
					(width 0)
					(type default)
				)
				(fill
					(type none)
				)
			)
		)
		(symbol "HF-A11-SMT_1_1"
			(pin power_in line
				(at 0 22.86 270)
				(length 5.08)
				(name "3.3V"
					(effects
						(font
							(size 1.27 1.27)
						)
					)
				)
				(number "1"
					(effects
						(font
							(size 1.27 1.27)
						)
					)
				)
			)
			(pin passive line
				(at 20.32 -12.7 180)
				(length 5.08)
				(name "RX+"
					(effects
						(font
							(size 1.27 1.27)
						)
					)
				)
				(number "10"
					(effects
						(font
							(size 1.27 1.27)
						)
					)
				)
			)
			(pin passive line
				(at 20.32 -15.24 180)
				(length 5.08)
				(name "RX-"
					(effects
						(font
							(size 1.27 1.27)
						)
					)
				)
				(number "11"
					(effects
						(font
							(size 1.27 1.27)
						)
					)
				)
			)
			(pin output line
				(at -20.32 -10.16 0)
				(length 5.08)
				(name "~{LINK}"
					(effects
						(font
							(size 1.27 1.27)
						)
					)
				)
				(number "14"
					(effects
						(font
							(size 1.27 1.27)
						)
					)
				)
			)
			(pin input line
				(at -20.32 -5.08 0)
				(length 5.08)
				(name "~{RESET}"
					(effects
						(font
							(size 1.27 1.27)
						)
					)
				)
				(number "15"
					(effects
						(font
							(size 1.27 1.27)
						)
					)
				)
			)
			(pin output line
				(at -20.32 -12.7 0)
				(length 5.08)
				(name "~{READY}"
					(effects
						(font
							(size 1.27 1.27)
						)
					)
				)
				(number "16"
					(effects
						(font
							(size 1.27 1.27)
						)
					)
				)
			)
			(pin input line
				(at -20.32 -15.24 0)
				(length 5.08)
				(name "~{RELOAD}"
					(effects
						(font
							(size 1.27 1.27)
						)
					)
				)
				(number "17"
					(effects
						(font
							(size 1.27 1.27)
						)
					)
				)
			)
			(pin power_in line
				(at 0 -22.86 90)
				(length 5.08)
				(name "GND"
					(effects
						(font
							(size 1.27 1.27)
						)
					)
				)
				(number "18"
					(effects
						(font
							(size 1.27 1.27)
						)
					)
				)
			)
			(pin power_in line
				(at 2.54 -22.86 90)
				(length 5.08)
				(name "GND"
					(effects
						(font
							(size 1.27 1.27)
						)
					)
				)
				(number "19"
					(effects
						(font
							(size 1.27 1.27)
						)
					)
				)
			)
			(pin power_in line
				(at 2.54 22.86 270)
				(length 5.08)
				(name "3.3V"
					(effects
						(font
							(size 1.27 1.27)
						)
					)
				)
				(number "2"
					(effects
						(font
							(size 1.27 1.27)
						)
					)
				)
			)
			(pin power_in line
				(at 5.08 -22.86 90)
				(length 5.08)
				(name "GND"
					(effects
						(font
							(size 1.27 1.27)
						)
					)
				)
				(number "20"
					(effects
						(font
							(size 1.27 1.27)
						)
					)
				)
			)
			(pin input line
				(at -20.32 2.54 0)
				(length 5.08)
				(name "UART1_RXD"
					(effects
						(font
							(size 1.27 1.27)
						)
					)
				)
				(number "21"
					(effects
						(font
							(size 1.27 1.27)
						)
					)
				)
			)
			(pin output line
				(at -20.32 0 0)
				(length 5.08)
				(name "UART1_TXD"
					(effects
						(font
							(size 1.27 1.27)
						)
					)
				)
				(number "22"
					(effects
						(font
							(size 1.27 1.27)
						)
					)
				)
			)
			(pin power_out line
				(at 20.32 -7.62 180)
				(length 5.08)
				(name "1.8VOUT"
					(effects
						(font
							(size 1.27 1.27)
						)
					)
				)
				(number "23"
					(effects
						(font
							(size 1.27 1.27)
						)
					)
				)
			)
			(pin power_in line
				(at 20.32 10.16 180)
				(length 5.08)
				(name "GND"
					(effects
						(font
							(size 1.27 1.27)
						)
					)
				)
				(number "24"
					(effects
						(font
							(size 1.27 1.27)
						)
					)
				)
			)
			(pin passive line
				(at 20.32 12.7 180)
				(length 5.08)
				(name "RF"
					(effects
						(font
							(size 1.27 1.27)
						)
					)
				)
				(number "25"
					(effects
						(font
							(size 1.27 1.27)
						)
					)
				)
			)
			(pin power_in line
				(at 20.32 15.24 180)
				(length 5.08)
				(name "GND"
					(effects
						(font
							(size 1.27 1.27)
						)
					)
				)
				(number "26"
					(effects
						(font
							(size 1.27 1.27)
						)
					)
				)
			)
			(pin power_in line
				(at -2.54 -22.86 90)
				(length 5.08)
				(name "GND"
					(effects
						(font
							(size 1.27 1.27)
						)
					)
				)
				(number "3"
					(effects
						(font
							(size 1.27 1.27)
						)
					)
				)
			)
			(pin output line
				(at -20.32 15.24 0)
				(length 5.08)
				(name "UART_TXD"
					(effects
						(font
							(size 1.27 1.27)
						)
					)
				)
				(number "4"
					(effects
						(font
							(size 1.27 1.27)
						)
					)
				)
			)
			(pin input line
				(at -20.32 12.7 0)
				(length 5.08)
				(name "UART_RXD"
					(effects
						(font
							(size 1.27 1.27)
						)
					)
				)
				(number "5"
					(effects
						(font
							(size 1.27 1.27)
						)
					)
				)
			)
			(pin output line
				(at -20.32 10.16 0)
				(length 5.08)
				(name "UART_RTS"
					(effects
						(font
							(size 1.27 1.27)
						)
					)
				)
				(number "6"
					(effects
						(font
							(size 1.27 1.27)
						)
					)
				)
			)
			(pin input line
				(at -20.32 7.62 0)
				(length 5.08)
				(name "UART_CTS"
					(effects
						(font
							(size 1.27 1.27)
						)
					)
				)
				(number "7"
					(effects
						(font
							(size 1.27 1.27)
						)
					)
				)
			)
			(pin passive line
				(at 20.32 0 180)
				(length 5.08)
				(name "TX+"
					(effects
						(font
							(size 1.27 1.27)
						)
					)
				)
				(number "8"
					(effects
						(font
							(size 1.27 1.27)
						)
					)
				)
			)
			(pin passive line
				(at 20.32 -2.54 180)
				(length 5.08)
				(name "TX-"
					(effects
						(font
							(size 1.27 1.27)
						)
					)
				)
				(number "9"
					(effects
						(font
							(size 1.27 1.27)
						)
					)
				)
			)
		)
	)
	(symbol "USR-C322"
		(exclude_from_sim no)
		(in_bom yes)
		(on_board yes)
		(property "Reference" "U"
			(at -15.24 27.94 0)
			(effects
				(font
					(size 1.27 1.27)
				)
			)
		)
		(property "Value" "USR-C322"
			(at 10.16 27.94 0)
			(effects
				(font
					(size 1.27 1.27)
				)
			)
		)
		(property "Footprint" "RF_WiFi:USR-C322"
			(at -2.54 -10.16 0)
			(effects
				(font
					(size 1.27 1.27)
				)
				(hide yes)
			)
		)
		(property "Datasheet" "https://www.usriot.com/download/WIFI/USR-C322%20User%20Manual%20V2.3.pdf"
			(at -12.7 27.94 0)
			(effects
				(font
					(size 1.27 1.27)
				)
				(hide yes)
			)
		)
		(property "Description" "802.11 b/g/n Wi-Fi Module"
			(at 0 0 0)
			(effects
				(font
					(size 1.27 1.27)
				)
				(hide yes)
			)
		)
		(property "ki_keywords" "WiFi IEEE802.11 b/g/n"
			(at 0 0 0)
			(effects
				(font
					(size 1.27 1.27)
				)
				(hide yes)
			)
		)
		(property "ki_fp_filters" "USR?C322*"
			(at 0 0 0)
			(effects
				(font
					(size 1.27 1.27)
				)
				(hide yes)
			)
		)
		(symbol "USR-C322_1_1"
			(rectangle
				(start -15.24 25.4)
				(end 15.24 -25.4)
				(stroke
					(width 0.254)
					(type default)
				)
				(fill
					(type background)
				)
			)
			(pin power_in line
				(at 0 -27.94 90)
				(length 2.54)
				(name "GND"
					(effects
						(font
							(size 1.27 1.27)
						)
					)
				)
				(number "1"
					(effects
						(font
							(size 1.27 1.27)
						)
					)
				)
			)
			(pin no_connect line
				(at 15.24 -15.24 180)
				(length 2.54) hide
				(name "NC"
					(effects
						(font
							(size 1.27 1.27)
						)
					)
				)
				(number "10"
					(effects
						(font
							(size 1.27 1.27)
						)
					)
				)
			)
			(pin passive line
				(at 0 -27.94 90)
				(length 2.54) hide
				(name "GND"
					(effects
						(font
							(size 1.27 1.27)
						)
					)
				)
				(number "11"
					(effects
						(font
							(size 1.27 1.27)
						)
					)
				)
			)
			(pin passive line
				(at 0 -27.94 90)
				(length 2.54) hide
				(name "GND"
					(effects
						(font
							(size 1.27 1.27)
						)
					)
				)
				(number "12"
					(effects
						(font
							(size 1.27 1.27)
						)
					)
				)
			)
			(pin power_in line
				(at -2.54 27.94 270)
				(length 2.54)
				(name "VBT_CC"
					(effects
						(font
							(size 1.27 1.27)
						)
					)
				)
				(number "13"
					(effects
						(font
							(size 1.27 1.27)
						)
					)
				)
			)
			(pin power_in line
				(at 0 27.94 270)
				(length 2.54)
				(name "VDD_ANA2"
					(effects
						(font
							(size 1.27 1.27)
						)
					)
				)
				(number "14"
					(effects
						(font
							(size 1.27 1.27)
						)
					)
				)
			)
			(pin bidirectional line
				(at 17.78 17.78 180)
				(length 2.54)
				(name "GPIO2"
					(effects
						(font
							(size 1.27 1.27)
						)
					)
				)
				(number "15"
					(effects
						(font
							(size 1.27 1.27)
						)
					)
				)
			)
			(pin no_connect line
				(at 15.24 -17.78 180)
				(length 2.54) hide
				(name "NC"
					(effects
						(font
							(size 1.27 1.27)
						)
					)
				)
				(number "16"
					(effects
						(font
							(size 1.27 1.27)
						)
					)
				)
			)
			(pin passive line
				(at 0 -27.94 90)
				(length 2.54) hide
				(name "GND"
					(effects
						(font
							(size 1.27 1.27)
						)
					)
				)
				(number "17"
					(effects
						(font
							(size 1.27 1.27)
						)
					)
				)
			)
			(pin bidirectional line
				(at 17.78 15.24 180)
				(length 2.54)
				(name "GPIO3"
					(effects
						(font
							(size 1.27 1.27)
						)
					)
				)
				(number "18"
					(effects
						(font
							(size 1.27 1.27)
						)
					)
				)
			)
			(pin output line
				(at -17.78 22.86 0)
				(length 2.54)
				(name "UART0_TX"
					(effects
						(font
							(size 1.27 1.27)
						)
					)
				)
				(number "19"
					(effects
						(font
							(size 1.27 1.27)
						)
					)
				)
			)
			(pin bidirectional line
				(at 17.78 22.86 180)
				(length 2.54)
				(name "GPIO0"
					(effects
						(font
							(size 1.27 1.27)
						)
					)
				)
				(number "2"
					(effects
						(font
							(size 1.27 1.27)
						)
					)
				)
			)
			(pin input line
				(at -17.78 20.32 0)
				(length 2.54)
				(name "UART0_RX"
					(effects
						(font
							(size 1.27 1.27)
						)
					)
				)
				(number "20"
					(effects
						(font
							(size 1.27 1.27)
						)
					)
				)
			)
			(pin input line
				(at -17.78 0 0)
				(length 2.54)
				(name "~{RELOAD}"
					(effects
						(font
							(size 1.27 1.27)
						)
					)
				)
				(number "21"
					(effects
						(font
							(size 1.27 1.27)
						)
					)
				)
			)
			(pin open_collector line
				(at -17.78 -5.08 0)
				(length 2.54)
				(name "~{READY}"
					(effects
						(font
							(size 1.27 1.27)
						)
					)
				)
				(number "22"
					(effects
						(font
							(size 1.27 1.27)
						)
					)
				)
			)
			(pin open_collector line
				(at -17.78 -7.62 0)
				(length 2.54)
				(name "~{LINK}"
					(effects
						(font
							(size 1.27 1.27)
						)
					)
				)
				(number "23"
					(effects
						(font
							(size 1.27 1.27)
						)
					)
				)
			)
			(pin input line
				(at -17.78 17.78 0)
				(length 2.54)
				(name "UART0_CTS"
					(effects
						(font
							(size 1.27 1.27)
						)
					)
				)
				(number "24"
					(effects
						(font
							(size 1.27 1.27)
						)
					)
				)
			)
			(pin output line
				(at -17.78 15.24 0)
				(length 2.54)
				(name "UART0_RTS"
					(effects
						(font
							(size 1.27 1.27)
						)
					)
				)
				(number "25"
					(effects
						(font
							(size 1.27 1.27)
						)
					)
				)
			)
			(pin bidirectional line
				(at 17.78 12.7 180)
				(length 2.54)
				(name "GPIO4"
					(effects
						(font
							(size 1.27 1.27)
						)
					)
				)
				(number "26"
					(effects
						(font
							(size 1.27 1.27)
						)
					)
				)
			)
			(pin bidirectional line
				(at 17.78 10.16 180)
				(length 2.54)
				(name "GPIO5"
					(effects
						(font
							(size 1.27 1.27)
						)
					)
				)
				(number "27"
					(effects
						(font
							(size 1.27 1.27)
						)
					)
				)
			)
			(pin passive line
				(at 0 -27.94 90)
				(length 2.54) hide
				(name "GND"
					(effects
						(font
							(size 1.27 1.27)
						)
					)
				)
				(number "28"
					(effects
						(font
							(size 1.27 1.27)
						)
					)
				)
			)
			(pin passive line
				(at 0 -27.94 90)
				(length 2.54) hide
				(name "GND"
					(effects
						(font
							(size 1.27 1.27)
						)
					)
				)
				(number "29"
					(effects
						(font
							(size 1.27 1.27)
						)
					)
				)
			)
			(pin bidirectional line
				(at 17.78 20.32 180)
				(length 2.54)
				(name "GPIO1"
					(effects
						(font
							(size 1.27 1.27)
						)
					)
				)
				(number "3"
					(effects
						(font
							(size 1.27 1.27)
						)
					)
				)
			)
			(pin output line
				(at -17.78 10.16 0)
				(length 2.54)
				(name "UART1_TX"
					(effects
						(font
							(size 1.27 1.27)
						)
					)
				)
				(number "30"
					(effects
						(font
							(size 1.27 1.27)
						)
					)
				)
			)
			(pin input line
				(at -17.78 7.62 0)
				(length 2.54)
				(name "UART1_RX"
					(effects
						(font
							(size 1.27 1.27)
						)
					)
				)
				(number "31"
					(effects
						(font
							(size 1.27 1.27)
						)
					)
				)
			)
			(pin bidirectional line
				(at 17.78 7.62 180)
				(length 2.54)
				(name "GPIO6"
					(effects
						(font
							(size 1.27 1.27)
						)
					)
				)
				(number "32"
					(effects
						(font
							(size 1.27 1.27)
						)
					)
				)
			)
			(pin bidirectional line
				(at 17.78 5.08 180)
				(length 2.54)
				(name "GPIO7"
					(effects
						(font
							(size 1.27 1.27)
						)
					)
				)
				(number "33"
					(effects
						(font
							(size 1.27 1.27)
						)
					)
				)
			)
			(pin bidirectional line
				(at 17.78 2.54 180)
				(length 2.54)
				(name "GPIO8"
					(effects
						(font
							(size 1.27 1.27)
						)
					)
				)
				(number "34"
					(effects
						(font
							(size 1.27 1.27)
						)
					)
				)
			)
			(pin bidirectional line
				(at 17.78 0 180)
				(length 2.54)
				(name "GPIO9"
					(effects
						(font
							(size 1.27 1.27)
						)
					)
				)
				(number "35"
					(effects
						(font
							(size 1.27 1.27)
						)
					)
				)
			)
			(pin bidirectional line
				(at 17.78 -2.54 180)
				(length 2.54)
				(name "GPIO10"
					(effects
						(font
							(size 1.27 1.27)
						)
					)
				)
				(number "36"
					(effects
						(font
							(size 1.27 1.27)
						)
					)
				)
			)
			(pin bidirectional line
				(at 17.78 -5.08 180)
				(length 2.54)
				(name "GPIO11"
					(effects
						(font
							(size 1.27 1.27)
						)
					)
				)
				(number "37"
					(effects
						(font
							(size 1.27 1.27)
						)
					)
				)
			)
			(pin bidirectional line
				(at 17.78 -7.62 180)
				(length 2.54)
				(name "GPIO12"
					(effects
						(font
							(size 1.27 1.27)
						)
					)
				)
				(number "38"
					(effects
						(font
							(size 1.27 1.27)
						)
					)
				)
			)
			(pin no_connect line
				(at 15.24 -20.32 180)
				(length 2.54) hide
				(name "NC"
					(effects
						(font
							(size 1.27 1.27)
						)
					)
				)
				(number "39"
					(effects
						(font
							(size 1.27 1.27)
						)
					)
				)
			)
			(pin input line
				(at -17.78 2.54 0)
				(length 2.54)
				(name "~{RESET}"
					(effects
						(font
							(size 1.27 1.27)
						)
					)
				)
				(number "4"
					(effects
						(font
							(size 1.27 1.27)
						)
					)
				)
			)
			(pin no_connect line
				(at 15.24 -22.86 180)
				(length 2.54) hide
				(name "NC"
					(effects
						(font
							(size 1.27 1.27)
						)
					)
				)
				(number "40"
					(effects
						(font
							(size 1.27 1.27)
						)
					)
				)
			)
			(pin bidirectional line
				(at 17.78 -10.16 180)
				(length 2.54)
				(name "GPIO13"
					(effects
						(font
							(size 1.27 1.27)
						)
					)
				)
				(number "41"
					(effects
						(font
							(size 1.27 1.27)
						)
					)
				)
			)
			(pin no_connect line
				(at 7.62 -25.4 90)
				(length 2.54) hide
				(name "NC"
					(effects
						(font
							(size 1.27 1.27)
						)
					)
				)
				(number "42"
					(effects
						(font
							(size 1.27 1.27)
						)
					)
				)
			)
			(pin no_connect line
				(at 5.08 -25.4 90)
				(length 2.54) hide
				(name "NC"
					(effects
						(font
							(size 1.27 1.27)
						)
					)
				)
				(number "43"
					(effects
						(font
							(size 1.27 1.27)
						)
					)
				)
			)
			(pin passive line
				(at 0 -27.94 90)
				(length 2.54) hide
				(name "GND"
					(effects
						(font
							(size 1.27 1.27)
						)
					)
				)
				(number "44"
					(effects
						(font
							(size 1.27 1.27)
						)
					)
				)
			)
			(pin passive line
				(at -17.78 -17.78 0)
				(length 2.54)
				(name "SOP2"
					(effects
						(font
							(size 1.27 1.27)
						)
					)
				)
				(number "5"
					(effects
						(font
							(size 1.27 1.27)
						)
					)
				)
			)
			(pin passive line
				(at -17.78 -15.24 0)
				(length 2.54)
				(name "SOP1"
					(effects
						(font
							(size 1.27 1.27)
						)
					)
				)
				(number "6"
					(effects
						(font
							(size 1.27 1.27)
						)
					)
				)
			)
			(pin passive line
				(at -17.78 -12.7 0)
				(length 2.54)
				(name "SOP0"
					(effects
						(font
							(size 1.27 1.27)
						)
					)
				)
				(number "7"
					(effects
						(font
							(size 1.27 1.27)
						)
					)
				)
			)
			(pin passive line
				(at -17.78 -22.86 0)
				(length 2.54)
				(name "ANA_DC-DC"
					(effects
						(font
							(size 1.27 1.27)
						)
					)
				)
				(number "8"
					(effects
						(font
							(size 1.27 1.27)
						)
					)
				)
			)
			(pin no_connect line
				(at 15.24 -12.7 180)
				(length 2.54) hide
				(name "NC"
					(effects
						(font
							(size 1.27 1.27)
						)
					)
				)
				(number "9"
					(effects
						(font
							(size 1.27 1.27)
						)
					)
				)
			)
		)
	)
)